Data reporting format for STOP's exposure data format • eDataDRF
…
protocol_options_vocabulary() # calls bind_rows() on four *_protocol_vocabulary() functions to return a tibble
#> # A tibble: 75 × 3
#>    Protocol_Type     Short_Name     Long_Name            
#>    <chr>             <chr>          <chr>                
#>  1 Sampling Protocol Not relevant   Not relevant         
#>  2 Sampling Protocol Not reported   Not reported         
#>  3 Sampling Protocol Point          Point sampling       
#>  4 Sampling Protocol Composite      Composite sampling   
#>  5 Sampling Protocol Trawl          Trawl sampling       
#>  6 Sampling Protocol Grab           Grab sampling        
#>  7 Sampling Protocol Core           Core sampling        
#>  8 Sampling Protocol Seine net      Seine net sampling   
#>  9 Sampling Protocol Electrofishing Electrofishing       
#> 10 Sampling Protocol Plankton net   Plankton net sampling
#> # ℹ 65 more rows
…
