…
### Sample Species

`SAMPLE_SPECIES` - *String, controlled, mandatory*

The consensus binomial scientific name of the species sampled. As above,
both species group and name (below) are taken from the EPA’s [ECOTOX
Knowledgebase](https://www.epa.gov/comptox-tools/ecotoxicology-ecotox-knowledgebase-resource-hub)
and cover approximately 13,000 of the species most used in the field.
Where this is insufficent, a species name can be added manually.

#### Controlled Vocabulary

``` r
species_names_vocabulary()
#> # A tibble: 29,562 × 4
#>    SPECIES_COMMON_NAME SPECIES_NAME          SPECIES_KINGDOM SPECIES_GROUP
#>    <chr>               <chr>                 <chr>           <chr>        
#>  1 Fathead Minnow      Pimephales promelas   Animalia        Fish         
#>  2 Bluegill            Lepomis macrochirus   Animalia        Fish         
#>  3 Brook Trout         Salvelinus fontinalis Animalia        Fish         
#>  4 Rainbow Trout       Oncorhynchus mykiss   Animalia        Fish         
#>  5 Water Flea          Daphnia magna         Animalia        Crustaceans  
#>  6 Scud                Gammarus lacustris    Animalia        Crustaceans  
#>  7 Scud                Gammarus fasciatus    Animalia        Crustaceans  
#>  8 Water Flea          Daphnia pulex         Animalia        Crustaceans  
#>  9 Diatom              Nitzschia linearis    Chromista       Algae        
#> 10 Green Crab          Carcinus maenas       Animalia        Crustaceans  
#> # ℹ 29,552 more rows
```
…
