…
The lower bound of any [reported uncertainty](#uncertainty-type).

### Measured Unit

`MEASURED_UNIT` - *string, controlled, conditionally mandatory*

The unit of measurement associated with the data. A non-exhaustive list
of options with conversion factors is provided as part of the format.
Mandatory when a [Measured value](#measured-value) is provided.

#### Controlled Vocabulary

``` r
parameter_unit_vocabulary()
#> # A tibble: 64 × 4
#>    MEASURED_UNIT BASE_SI_UNIT CONVERSION_FACTOR UNIT_COMMENTS      
#>    <chr>         <chr>        <chr>             <chr>              
#>  1 mg/L          kg/m³        1e-3              mass concentration 
#>  2 μg/L          kg/m³        1e-6              mass concentration 
#>  3 ng/L          kg/m³        1e-9              mass concentration 
#>  4 pg/L          kg/m³        1e-12             mass concentration 
#>  5 mol/L         mol/m³       1000              molar concentration
#>  6 mmol/L        mol/m³       1                 molar concentration
#>  7 μmol/L        mol/m³       1e-3              molar concentration
#>  8 nmol/L        mol/m³       1e-6              molar concentration
#>  9 pmol/L        mol/m³       1e-9              molar concentration
#> 10 M             mol/m³       1000              molar concentration
#> # ℹ 54 more rows
```
…
