Methods data • eDataDRF
…
The category of protocol/method (Sampling, Extraction, Fractionation, Analytical).

protocol_categories_vocabulary()
#> [1] "Sampling Protocol"      "Fractionation Protocol" "Extraction Protocol"   
#> [4] "Analytical Protocol"

Protocol Name - String, controlled vocabulary, mandatory

PROTOCOL_NAME

The consensus name (short and long) of a protocol or method used in sampling. Options are currently based on the aquatic ecotoxicology domain, but will be extended and harmonised with relevant ontologies and taxonomies as practical.

protocol_options_vocabulary()
#> # A tibble: 75 × 3
#>    Protocol_Type     Short_Name     Long_Name            
#>    <chr>             <chr>          <chr>                
#>  1 Sampling Protocol Not relevant   Not relevant         
#>  2 Sampling Protocol Not reported   Not reported         
#>  3 Sampling Protocol Point          Point sampling       
#>  4 Sampling Protocol Composite      Composite sampling   
#>  5 Sampling Protocol Trawl          Trawl sampling       
#>  6 Sampling Protocol Grab           Grab sampling        
#>  7 Sampling Protocol Core           Core sampling        
#>  8 Sampling Protocol Seine net      Seine net sampling   
#>  9 Sampling Protocol Electrofishing Electrofishing       
#> 10 Sampling Protocol Plankton net   Plankton net sampling
#> # ℹ 65 more rows
…
